module short-link-qr-code-backend

go 1.20

require (
        github.com/KyleBanks/depth v1.2.1 // indirect
        github.com/PuerkitoBio/purell v1.2.0 // indirect
        github.com/PuerkitoBio/urlesc v0.0.0-20170810143723-de5bf2ad4578 // indirect
        github.com/go-openapi/jsonpointer v0.20.0 // indirect
        github.com/go-openapi/jsonreference v0.20.2 // indirect
        github.com/go-openapi/spec v0.20.9 // indirect
        github.com/go-openapi/swag v0.22.4 // indirect
        github.com/golang-jwt/jwt v3.2.2+incompatible // indirect
        github.com/golang-jwt/jwt/v4 v4.4.3 // indirect
        github.com/golang/snappy v0.0.1 // indirect
        github.com/google/uuid v1.5.0 // indirect
        github.com/josharian/intern v1.0.0 // indirect
        github.com/klauspost/compress v1.13.6 // indirect
        github.com/labstack/echo-jwt/v4 v4.0.0 // indirect
        github.com/labstack/echo/v4 v4.10.0 // indirect
        github.com/labstack/gommon v0.4.0 // indirect
        github.com/mailru/easyjson v0.7.7 // indirect
        github.com/mattn/go-colorable v0.1.13 // indirect
        github.com/mattn/go-isatty v0.0.17 // indirect
        github.com/montanaflynn/stats v0.0.0-20171201202039-1bf9dbcd8cbe // indirect
        github.com/pkg/errors v0.9.1 // indirect
        github.com/swaggo/echo-swagger v1.3.5 // indirect
        github.com/swaggo/files v1.0.0 // indirect
        github.com/swaggo/swag v1.16.1 // indirect
        github.com/valyala/bytebufferpool v1.0.0 // indirect
        github.com/valyala/fasttemplate v1.2.2 // indirect
        github.com/xdg-go/pbkdf2 v1.0.0 // indirect
        github.com/xdg-go/scram v1.1.1 // indirect
        github.com/xdg-go/stringprep v1.0.3 // indirect
        github.com/youmark/pkcs8 v0.0.0-20181117223130-1be2e3e5546d // indirect
        go.mongodb.org/mongo-driver v1.11.0 // indirect
        go.uber.org/multierr v1.11.0 // indirect
        go.uber.org/zap v1.26.0 // indirect
        golang.org/x/crypto v0.12.0 // indirect
        golang.org/x/net v0.14.0 // indirect
        golang.org/x/sync v0.3.0 // indirect
        golang.org/x/sys v0.11.0 // indirect
        golang.org/x/text v0.12.0 // indirect
        golang.org/x/time v0.3.0 // indirect
        golang.org/x/tools v0.12.0 // indirect
        gopkg.in/yaml.v2 v2.4.0 // indirect
        gopkg.in/yaml.v3 v3.0.1 // indirect
)
